Artemisinin resistance based on molecular marker in the Kelch 13 gene — artemisinin • wwarnsurveyr
…
    https://www.wwarn.org/tracking-resistance/artemisinin-molecular-surveyor

    Details

    The Artemisinin Molecular Surveyor is an interactive map that summarises the
prevalence of these molecular markers in the propeller region of the Kelch 13
gene of the malaria parasite by location and year, providing a clear and
standardised visualisation of the evidence to date to inform key
international, regional and national monitoring strategies.

    Examples

artemisinin

#> # A tibble: 2,434 x 16
#>    continent val   country year  tested prev  lon   title pubMedId sid  
#>    <chr>     <chr> <chr>   <chr> <chr>  <chr> <chr> <chr> <chr>    <chr>
#>  1 Asia      clea… Myanmar 2014  62     96.7… 92.8… Spre… 25704894 PSHHG
#>  2 Asia      clea… Myanmar 2013  30     63.3… 97.3… Spre… 25704894 PSHHG
#>  3 Asia      clea… Myanmar 2014  40     62.5… 97.3… Spre… 25704894 PSHHG
#>  4 Asia      clea… Myanmar 2013  188    42.0… 98.1… Spre… 25704894 PSHHG
#>  5 Asia      clea… Myanmar 2014  99     72.7… 98.1… Spre… 25704894 PSHHG
#>  6 Asia      clea… Myanmar 2013  3      66.6… 97.8… Spre… 25704894 PSHHG
#>  7 Asia      clea… Myanmar 2014  5      60.0… 97.8… Spre… 25704894 PSHHG
#>  8 Asia      clea… Myanmar 2013  19     89.4… 94.0… Spre… 25704894 PSHHG
#>  9 Asia      clea… Myanmar 2014  10     100.… 94.0… Spre… 25704894 PSHHG
#> 10 Asia      clea… Bangla… 2014  25     100.… 92.1… Spre… 25704894 PSHHG
#> # … with 2,424 more rows, and 6 more variables: mutation <chr>, site <chr>,
#> #   estLoc <chr>, present <chr>, lat <chr>, authors <chr>
…
